…
```r
tab_tbt <- dat_tbt_mean_snails %>%
  group_by(Station, Year) %>%
  spread(Year, TBT_mean) %>%
  arrange(Species, desc(Station))

tab_tbt
```

```
## # A tibble: 46 x 17
## # Groups:   Station [33]
##    Species   Station TBT_flag Station_name    Station_name2 `2004` `2005` `2007`
##    <chr>     <chr>      <dbl> <fct>           <fct>          <dbl>  <dbl>  <dbl>
##  1 Buccinum  6              0 Shipyard (0 km) Shipyard (0 ~     NA     NA   NA  
##  2 Buccinum  4              0 Outer Vikkilen~ Outer Vikkil~     NA     NA   NA  
##  3 Littorina 7              0 Inner Vikkilen~ Inner Vikkil~     NA    NaN   97.7
##  4 Littorina 6              0 Shipyard (0 km) Shipyard (0 ~     NA    148   31.3
##  5 Littorina 5              0 Skjeviga (0.6 ~ Mid Vikkilen~     NA     NA   35.7
##  6 Littorina 4              0 Outer Vikkilen~ Outer Vikkil~     NA    NaN   NA  
##  7 Littorina 1              0 Håøya (5.5 km)  Håøya (4-6 k~     NA     NA   NA  
##  8 Nassarius 7              0 Inner Vikkilen~ Inner Vikkil~     NA     NA   53.4
##  9 Nassarius 6              0 Shipyard (0 km) Shipyard (0 ~     NA     NA   56.1
## 10 Nassarius 5              0 Skjeviga (0.6 ~ Mid Vikkilen~     NA     NA   18.1
## # ... with 36 more rows, and 9 more variables: `2008` <dbl>, `2009` <dbl>,
## #   `2010` <dbl>, `2011` <dbl>, `2013` <dbl>, `2014` <dbl>, `2016` <dbl>,
## #   `2018` <dbl>, `2021` <dbl>
```
…
```r
dat_intersex_litt %>%
  count(Station, Year, Sex) %>%
  spread(Sex, n)
```

```
## # A tibble: 39 x 4
##    Station  Year     f     m
##    <chr>   <dbl> <int> <int>
##  1 1        2005    19    12
##  2 1        2011    28    22
##  3 1        2016    29    21
##  4 1        2018    32    16
##  5 4        2005    25    25
##  6 4        2007    12    18
##  7 4        2010    22    28
##  8 4        2011    25    25
##  9 4        2012    27    23
## 10 4        2013    23    27
## # ... with 29 more rows
```
…
```r
dat_intersex_litt_summ %>%
  mutate(PRL_mean = round(PRL_mean, 2)) %>%
  select(Station, Year, Sex, PRL_mean) %>%
  spread(Sex, PRL_mean)
```

```
## # A tibble: 49 x 3
##    Station  Year     f
##    <chr>   <dbl> <dbl>
##  1 1        2005  0   
##  2 1        2011  0   
##  3 1        2016  0   
##  4 1        2018  0   
##  5 1        2021  0   
##  6 4        2005  0.18
##  7 4        2007  0   
##  8 4        2010  0   
##  9 4        2011  0   
## 10 4        2012  0   
## # ... with 39 more rows
```

```r
tab_tbt
```

```
## # A tibble: 46 x 17
## # Groups:   Station [33]
##    Species   Station TBT_flag Station_name    Station_name2 `2004` `2005` `2007`
##    <chr>     <chr>      <dbl> <fct>           <fct>          <dbl>  <dbl>  <dbl>
##  1 Buccinum  6              0 Shipyard (0 km) Shipyard (0 ~     NA     NA   NA  
##  2 Buccinum  4              0 Outer Vikkilen~ Outer Vikkil~     NA     NA   NA  
##  3 Littorina 7              0 Inner Vikkilen~ Inner Vikkil~     NA    NaN   97.7
##  4 Littorina 6              0 Shipyard (0 km) Shipyard (0 ~     NA    148   31.3
##  5 Littorina 5              0 Skjeviga (0.6 ~ Mid Vikkilen~     NA     NA   35.7
##  6 Littorina 4              0 Outer Vikkilen~ Outer Vikkil~     NA    NaN   NA  
##  7 Littorina 1              0 Håøya (5.5 km)  Håøya (4-6 k~     NA     NA   NA  
##  8 Nassarius 7              0 Inner Vikkilen~ Inner Vikkil~     NA     NA   53.4
##  9 Nassarius 6              0 Shipyard (0 km) Shipyard (0 ~     NA     NA   56.1
## 10 Nassarius 5              0 Skjeviga (0.6 ~ Mid Vikkilen~     NA     NA   18.1
## # ... with 36 more rows, and 9 more variables: `2008` <dbl>, `2009` <dbl>,
## #   `2010` <dbl>, `2011` <dbl>, `2013` <dbl>, `2014` <dbl>, `2016` <dbl>,
## #   `2018` <dbl>, `2021` <dbl>
```
…
