…
```r
dat_intersex_litt %>%
  count(Station, Year, Sex) %>%
  spread(Sex, n)
```

```
## # A tibble: 39 x 4
##    Station  Year     f     m
##    <chr>   <dbl> <int> <int>
##  1 1        2005    19    12
##  2 1        2011    28    22
##  3 1        2016    29    21
##  4 1        2018    32    16
##  5 4        2005    25    25
##  6 4        2007    12    18
##  7 4        2010    22    28
##  8 4        2011    25    25
##  9 4        2012    27    23
## 10 4        2013    23    27
## # ... with 29 more rows
```
…
```r
dat_intersex_litt_summ %>%
  mutate(PRL_mean = round(PRL_mean, 2)) %>%
  select(Station, Year, Sex, PRL_mean) %>%
  spread(Sex, PRL_mean)
```

```
## # A tibble: 36 x 4
##    Station  Year     f     m
##    <chr>   <dbl> <dbl> <dbl>
##  1 1        2005  0        0
##  2 1        2011  0        0
##  3 1        2016  0        0
##  4 1        2018  0        0
##  5 4        2005  0.18     0
##  6 4        2007  0        0
##  7 4        2010  0        0
##  8 4        2011  0        0
##  9 4        2012  0        0
## 10 4        2013  0        0
## # ... with 26 more rows
```
…
