…
### Stations from O-number  


```
##   PROJECT_ID O_NUMBER                         PROJECT_NAME
## 1       9246    15404                         Viktilt 2022
## 2      12578    15404 Miljøovervåking i Vikkilen 2015-2022
## 3      12386    15404        Overvåking av Vikkilen i 2018
##                             PROJECT_DESCRIPTION
## 1                Overvåking i Vikkilen for Nymo
## 2 Sedimenter, blåskjell, strandsnegl, bunnfauna
## 3                        Blåskjell, Strandsnegl
## # A tibble: 25 x 4
##    STATION_ID PROJECT_ID STATION_CODE STATION_NAME
##         <dbl> <chr>      <chr>        <chr>       
##  1      67469 9246,12578 A1           Vikkilen    
##  2      67470 9246,12578 A2           Vikkilen    
##  3      67471 9246       A3           Vikkilen    
##  4      67472 9246       A4           Vikkilen    
##  5      67473 9246       A5           Vikkilen    
##  6      67986 9246,12578 B1           Vikkilen    
##  7      52005 12578      B16          B16         
##  8      67475 9246       B16          Vikkilen    
##  9      67474 9246,12578 B5           Vikkilen    
## 10      67476 9246,12578 BL1          Stanghlm    
## # ... with 15 more rows
```
…
